Name	StrHausNr	PLZ	Ort	Bettenanzahl
		1076		0
		1136		0
		1198		0
		1522		0
		1854		0
		1879		0
		2314		0
		2491		0
		2602		0
		2677		0
		2757		0
		2845		0
		2875		0
		3111		0
		3178		0
		3345		0
		3423		0
		3720		0
		3747		0
		3770		0
		3834		0
		3852		0
		3870		0
		3997		0
		4002		0
		4015		0
		4018		0
		4092		0
		4229		0
		4366		0
		4396		0
		4462		0
		4502		0
		4743		0
		4807		0
		4883		0
		4949		0
		5066		0
		5249		0
		5330		0
		5447		0
		5584		0
		5659		0
		5702		0
		5864		0
		5934		0
		6098		0
		6168		0
		6190		0
		6445		0
		6485		0
		6565		0
		6677		0
		6681		0
		6813		0
		6944		0
		6958		0
		7349		0
		7363		0
		7478		0
		7614		0
		7620		0
		7672		0
		7766		0
		8030		0
		8065		0
		8109		0
		8294		0
		8315		0
		8338		0
		8514		0
		8536		0
		8553		0
		8943		0
		8987		0
		9030		0
		9371		0
		9465		0
		9522		0
		9593		0
		9878		0
		9982		0
		10138		0
		10173		0
		10350		0
		10444		0
		10469		0
		10549		0
		10597		0
		10768		0
		11134		0
		11136		0
		11307		0
		11325		0
		11326		0
		11349		0
		11410		0
		11488		0
		11710		0
		11739		0
		11746		0
		11781		0
		11851		0
		12213		0
		12273		0
		12281		0
		12316		0
		12343		0
		12361		0
		12374		0
		12415		0
		12482		0
		12615		0
		12638		0
		12651		0
		12711		0
		12852		0
		12890		0
		12902		0
		12983		0
		13538		0
		13602		0
		13654		0
		13725		0
		13754		0
		13979		0
		13993		0
		14106		0
		14108		0
		14113		0
		14303		0
		14325		0
		14442		0
		14481		0
		14555		0
		14574		0
		14682		0
		14767		0
		14782		0
		14933		0
		15208		0
		15313		0
		15470		0
		15601		0
		15642		0
		15685		0
		15933		0
		16012		0
		16057		0
		16177		0
		16198		0
		16239		0
		16284		0
		16375		0
		16609		0
		16807		0
		17026		0
		17408		0
		17524		0
		17712		0
		17748		0
		17749		0
		17985		0
		18016		0
		18063		0
		18127		0
		18181		0
		18604		0
		19018		0
		19040		0
		19345		0
		19667		0
		19692		0
		19771		0
		19780		0
		19882		0
		20191		0
		20295		0
		20363		0
		20518		0
		20543		0
		20612		0
		20682		0
		20685		0
		20715		0
		20726		0
		21247		0
		21479		0
		21841		0
		21844		0
		21863		0
		21938		0
		21939		0
		21976		0
		22027		0
		22084		0
		22144		0
		22596		0
		22605		0
		22723		0
		22779		0
		22924		0
		23023		0
		23036		0
		23088		0
		23166		0
		23183		0
		23227		0
		23497		0
		23542		0
		23612		0
		23647		0
		23729		0
		23798		0
		24056		0
		24164		0
		24186		0
		24212		0
		24244		0
		24536		0
		24555		0
		24612		0
		24636		0
		24683		0
		24764		0
		24856		0
		24870		0
		24935		0
		24959		0
		24969		0
		25012		0
		25320		0
		25596		0
		25713		0
		25904		0
		26119		0
		26185		0
		26186		0
		26372		0
		26446		0
		26458		0
		26565		0
		26675		0
		26705		0
		26823		0
		26839		0
		27015		0
		27038		0
		27203		0
		27245		0
		27276		0
		27381		0
		27393		0
		27529		0
		27575		0
		27697		0
		27823		0
		27888		0
		27917		0
		27973		0
		28132		0
		28247		0
		28328		0
		28357		0
		28369		0
		28431		0
		28441		0
		28510		0
		28578		0
		28611		0
		28639		0
		28702		0
		28909		0
		29060		0
		29121		0
		29236		0
		29380		0
		29427		0
		29606		0
		29658		0
		29669		0
		29807		0
		29943		0
		29989		0
		30021		0
		30117		0
		30155		0
		30178		0
		30189		0
		30202		0
		30232		0
		30238		0
		30463		0
		30620		0
		30678		0
		30800		0
		30924		0
		30928		0
		31100		0
		31198		0
		31271		0
		31282		0
		31321		0
		31458		0
		31706		0
		31771		0
		31850		0
		31969		0
		32048		0
		32063		0
		32366		0
		32454		0
		32498		0
		32649		0
		32742		0
		32842		0
		32854		0
		32881		0
		33068		0
		33107		0
		33183		0
		33196		0
		33268		0
		33433		0
		33437		0
		33446		0
		33486		0
		33587		0
		33622		0
		33679		0
		33762		0
		33940		0
		33996		0
		34091		0
		34176		0
		34210		0
		34329		0
		34392		0
		34528		0
		34634		0
		34662		0
		34851		0
		34937		0
		34943		0
		35270		0
		35299		0
		35439		0
		35471		0
		35513		0
		35532		0
		35724		0
		35822		0
		35907		0
		36029		0
		36035		0
		36070		0
		36267		0
		36835		0
		36915		0
		37021		0
		37045		0
		37212		0
		37297		0
		37307		0
		37340		0
		37423		0
		37450		0
		37489		0
		37502		0
		37753		0
		37868		0
		38065		0
		38131		0
		38141		0
		38452		0
		39036		0
		39167		0
		39212		0
		39238		0
		39534		0
		39583		0
		39680		0
		39771		0
		40080		0
		40160		0
		40386		0
		40422		0
		40442		0
		40545		0
		40614		0
		40796		0
		40935		0
		41019		0
		41031		0
		41281		0
		41358		0
		41398		0
		41518		0
		41645		0
		41656		0
		41687		0
		41783		0
		41802		0
		41826		0
		41916		0
		42156		0
		42265		0
		42354		0
		42514		0
		42622		0
		42858		0
		42872		0
		42970		0
		42979		0
		43054		0
		43284		0
		43332		0
		43440		0
		43534		0
		43647		0
		43655		0
		43720		0
		43781		0
		43807		0
		43899		0
		44119		0
		44154		0
		44231		0
		44356		0
		44552		0
		44795		0
		44937		0
		45219		0
		45304		0
		45456		0
		45467		0
		45749		0
		45835		0
		45876		0
		45893		0
		45929		0
		45947		0
		46027		0
		46146		0
		46170		0
		46237		0
		46310		0
		46526		0
		46574		0
		46640		0
		46890		0
		47097		0
		47271		0
		47367		0
		47597		0
		47633		0
		47769		0
		47880		0
		47907		0
		47975		0
		48216		0
		48228		0
		48252		0
		48272		0
		48315		0
		48345		0
		48471		0
		48572		0
		49021		0
		49303		0
		49336		0
		49812		0
		49900		0
		50064		0
		50190		0
		50372		0
		50483		0
		50629		0
		50746		0
		50754		0
		50887		0
		50889		0
		50988		0
		51078		0
		51106		0
		51255		0
		51391		0
		51400		0
		51430		0
		51539		0
		51792		0
		51940		0
		51971		0
		52103		0
		52148		0
		52154		0
		52156		0
		52181		0
		52201		0
		52206		0
		52282		0
		52375		0
		52464		0
		52469		0
		52547		0
		52912		0
		52917		0
		52970		0
		52979		0
		53034		0
		53139		0
		53165		0
		53244		0
		53370		0
		53389		0
		53455		0
		53672		0
		53699		0
		53705		0
		53740		0
		53866		0
		53905		0
		53998		0
		54021		0
		54036		0
		54077		0
		54177		0
		54226		0
		54368		0
		54740		0
		54833		0
		54875		0
		54893		0
		54934		0
		54982		0
		55067		0
		55120		0
		55433		0
		55529		0
		55637		0
		55684		0
		55839		0
		55898		0
		56011		0
		56283		0
		56304		0
		56573		0
		56577		0
		56726		0
		56842		0
		56899		0
		57122		0
		57361		0
		57469		0
		57484		0
		57622		0
		57673		0
		57944		0
		58237		0
		58317		0
		58477		0
		58582		0
		58619		0
		58737		0
		58808		0
		58839		0
		58865		0
		58879		0
		58896		0
		58921		0
		58936		0
		58953		0
		59084		0
		59136		0
		59176		0
		59500		0
		59524		0
		59844		0
		59946		0
		60295		0
		60299		0
		60343		0
		60354		0
		60440		0
		60525		0
		60578		0
		60582		0
		61149		0
		61157		0
		61164		0
		61467		0
		61602		0
		61661		0
		61838		0
		61854		0
		61860		0
		62309		0
		62327		0
		62353		0
		62378		0
		62385		0
		62548		0
		62680		0
		62722		0
		62827		0
		62828		0
		62846		0
		63155		0
		63192		0
		63318		0
		63421		0
		63447		0
		63579		0
		63819		0
		63836		0
		64016		0
		64054		0
		64306		0
		64348		0
		64519		0
		64556		0
		64887		0
		64934		0
		64953		0
		65020		0
		65059		0
		65153		0
		65491		0
		65555		0
		65571		0
		65746		0
		65845		0
		65956		0
		66093		0
		66459		0
		66591		0
		66608		0
		66668		0
		66707		0
		66745		0
		66773		0
		66819		0
		66894		0
		66948		0
		67015		0
		67181		0
		67217		0
		67232		0
		67248		0
		67352		0
		67684		0
		67702		0
		67771		0
		68174		0
		68275		0
		68441		0
		68559		0
		68638		0
		68650		0
		68685		0
		68789		0
		68859		0
		69032		0
		69158		0
		69185		0
		69212		0
		69320		0
		69476		0
		69491		0
		69529		0
		69648		0
		69726		0
		69734		0
		69763		0
		69849		0
		69852		0
		69861		0
		70013		0
		70171		0
		70388		0
		70455		0
		70552		0
		70552		0
		70609		0
		70650		0
		70666		0
		70715		0
		70871		0
		70957		0
		70996		0
		71134		0
		71187		0
		71238		0
		71305		0
		71504		0
		71578		0
		71674		0
		71686		0
		71860		0
		72030		0
		72406		0
		72494		0
		72497		0
		72657		0
		72657		0
		72689		0
		72901		0
		72957		0
		73162		0
		73188		0
		73217		0
		73241		0
		73242		0
		73295		0
		73355		0
		73665		0
		73681		0
		73747		0
		73793		0
		73820		0
		74015		0
		74031		0
		74378		0
		74616		0
		74716		0
		74790		0
		74805		0
		74951		0
		74975		0
		75000		0
		75201		0
		75201		0
		75262		0
		75347		0
		75505		0
		75832		0
		76050		0
		76064		0
		76116		0
		76219		0
		76323		0
		76606		0
		76731		0
		76854		0
		76968		0
		77052		0
		77340		0
		77374		0
		77408		0
		77424		0
		77517		0
		77566		0
		77701		0
		77809		0
		77942		0
		78019		0
		78021		0
		78032		0
		78069		0
		78433		0
		78614		0
		78641		0
		78985		0
		79046		0
		79048		0
		79314		0
		79331		0
		79352		0
		79359		0
		79402		0
		79693		0
		79700		0
		79816		0
		79871		0
		79880		0
		80113		0
		80261		0
		80288		0
		80305		0
		80471		0
		80562		0
		80623		0
		80754		0
		80885		0
		80901		0
		81001		0
		81193		0
		81233		0
		81332		0
		81339		0
		81365		0
		81376		0
		81487		0
		81623		0
		81686		0
		81686		0
		81717		0
		82040		0
		82107		0
		82123		0
		82135		0
		82252		0
		82345		0
		82457		0
		82500		0
		82536		0
		82682		0
		82787		0
		82845		0
		82937		0
		82984		0
		83265		0
		83282		0
		83584		0
		83591		0
		83669		0
		83721		0
		83798		0
		84046		0
		84086		0
		84126		0
		84261		0
		84372		0
		84440		0
		84632		0
		84651		0
		84741		0
		84812		0
		85075		0
		85121		0
		85280		0
		85651		0
		85835		0
		85858		0
		85975		0
		85978		0
		86124		0
		86147		0
		86340		0
		86502		0
		86647		0
		86677		0
		86778		0
		86859		0
		86897		0
		86972		0
		86981		0
		86994		0
		87175		0
		87182		0
		87410		0
		87413		0
		87503		0
		87637		0
		87696		0
		87723		0
		87832		0
		87920		0
		87993		0
		88047		0
		88129		0
		88209		0
		88657		0
		88758		0
		88783		0
		88815		0
		88856		0
		88983		0
		89037		0
		89208		0
		89226		0
		89227		0
		89416		0
		89461		0
		89488		0
		89491		0
		89792		0
		89809		0
		89995		0
		90004		0
		90651		0
		90767		0
		90851		0
		90949		0
		91092		0
		91440		0
		91524		0
		91548		0
		91577		0
		91613		0
		91771		0
		91811		0
		91912		0
		91952		0
		91988		0
		92054		0
		92200		0
		92231		0
		92253		0
		92310		0
		92350		0
		92428		0
		92495		0
		92496		0
		92777		0
		93037		0
		93131		0
		93197		0
		93200		0
		93282		0
		93351		0
		93392		0
		93397		0
		93417		0
		93433		0
		93492		0
		93569		0
		93645		0
		93667		0
		93761		0
		93776		0
		93823		0
		93857		0
		93952		0
		94122		0
		94350		0
		94408		0
		94487		0
		94747		0
		94797		0
		94987		0
		95012		0
		95185		0
		95301		0
		95423		0
		95513		0
		95553		0
		95582		0
		95616		0
		95685		0
		95702		0
		95704		0
		95778		0
		95808		0
		95854		0
		95865		0
		95872		0
		95940		0
		95975		0
		95982		0
		96028		0
		96140		0
		96367		0
		96653		0
		96779		0
		96956		0
		96985		0
		97025		0
		97056		0
		97143		0
		97153		0
		97213		0
		97292		0
		97320		0
		97505		0
		97595		0
		97707		0
		97751		0
		97797		0
		97807		0
		97810		0
		97832		0
		97874		0
		97954		0
		98069		0
		98115		0
		98134		0
		98162		0
		98194		0
		98310		0
		98389		0
		98686		0
		98766		0
		98979		0
		99053		0
		99063		0
		99085		0
		99108		0
		99282		0
		99322		0
		99325		0
		99392		0
		99429		0
		99432		0
		99496		0
		99577		0
		99645		0
		99664		0
		99692		0
		99973		0
